==========================================================================================
PROJECT2-FILE1 === PROJECT2-FILE1 === PROJECT2-FILE1 === PROJECT2-FILE1 === PROJECT2-FILE1
==========================================================================================

original values from Project1 before migrating to git :D
add values below for new features: